Reproducible_Research_Peer Assessment 1_JEMestrits
…
The 5-minute interval that, on average, contains the maximum number of steps is 835, with 206 steps.

activity_int_mean <- activity %>% na.omit() %>% group_by(interval) %>% summarize(steps = mean(steps)) 
activity_int_mean

## # A tibble: 288 x 2
##    interval  steps
##       <dbl>  <dbl>
##  1        0 1.72  
##  2        5 0.340 
##  3       10 0.132 
##  4       15 0.151 
##  5       20 0.0755
##  6       25 2.09  
##  7       30 0.528 
##  8       35 0.868 
##  9       40 0     
## 10       45 1.47  
## #  with 278 more rows
…
